{
  "name": "Template",
  "fields": [
    {
      "fieldName": "pageHeader",
      "fieldType": "byte[]",
      "fieldTypeBlobContent": "text",
      "fieldValidateRules": ["required"]
    },
    {
      "fieldName": "pageFooter",
      "fieldType": "byte[]",
      "fieldTypeBlobContent": "text",
      "fieldValidateRules": ["required"]
    },
    {
      "fieldName": "qualityBadgeText",
      "fieldType": "byte[]",
      "fieldTypeBlobContent": "text",
      "fieldValidateRules": ["required"]
    }
  ],
  "relationships": [],
  "entityTableName": "template",
  "dto": "mapstruct",
  "pagination": "pagination",
  "service": "serviceClass",
  "jpaMetamodelFiltering": false,
  "fluentMethods": true,
  "readOnly": false,
  "embedded": false,
  "applications": ["foodbankVolunteerRegistration"],
  "changelogDate": "20210124165310"
}
